Dirgahayu Kemerdekaan Republik Indonesia – Jelajah Statistika dan Ilmu Data
…
Kita akan memvisualisasikan data tersebut dengan pemrograman R. Untuk melakukannya, kita menggunakan paket {tidyverse}, {ggstream}, dan {ggtext}. Untuk itu kita perlu memastikan ketiga paket tersebut telah terpasang. Jika sudah, kita dapat memanggilnya dengan kode seperti berikut.

library(tidyverse)
library(ggstream)
library(ggtext)

Menjelajah Data

Mari singsingkan lengan baju kita. Dengan semangat kemerdekaan (agak berlebihan tak apa), kita mulai penjelahan data. Data realisasi penanaman modal tersebut tersedia di situs web Kementerian Investasi/BKPM. Data yang sudah aku siapkan dapat diakses di tautan ini. Dengan fungsi read_csv() kita impor data tersebut dan kita namai dengan realisasi_penanaman_modal. Untuk melihat datanya, kita dapat menggunakan fungsi print().

realisasi_penanaman_modal <- read_csv("https://raw.githubusercontent.com/jelajahstatid/jelajahstatid.github.io/main/pos/2024-08-dirgahayu-indonesia/aset/realisasi_penanaman_modal.csv")

print(realisasi_penanaman_modal)

# A tibble: 177 × 17
   benua  negara  `2010` `2011` `2012` `2013` `2014` `2015` `2016` `2017` `2018`
   <chr>  <chr>    <dbl>  <dbl>  <dbl>  <dbl>  <dbl>  <dbl>  <dbl>  <dbl>  <dbl>
 1 Afrika Afrika…     NA     NA     NA     NA     NA   NA      NA     NA      0 
 2 Afrika Afrika…     NA   1190     NA     NA    500   69.1   982.  4292.  5369.
 3 Afrika Aljaza…     NA     NA     NA     NA     NA    0     400      0      0 
 4 Afrika Benin       NA     NA     NA     NA     NA   NA      NA     NA     NA 
 5 Afrika Burkin…     NA     NA     NA     NA    200  300       0    411.     0 
 6 Afrika Eswati…     NA     NA     NA     NA     NA   NA      NA     NA     NA 
 7 Afrika Ethiop…     NA     NA     NA     NA     NA   NA      NA     NA    650 
 8 Afrika Gambia      NA     NA     NA     NA      0   NA      NA     NA     NA 
 9 Afrika Ghana       NA     NA     NA     NA     NA   NA      NA     NA     NA 
10 Afrika Guinea      NA     NA     NA     NA    500  100     200   1500      0 
# ℹ 167 more rows
# ℹ 6 more variables: `2019` <dbl>, `2020` <dbl>, `2021` <dbl>, `2022` <dbl>,
#   `2023` <dbl>, `2024` <dbl>
…
Data kita tersebut bentuknya melebar. Kita buat data itu menjadi memanjang dengan menggunakan pivot_longer(). Karena tahun 2024 nilainya belum utuh, kita perlu memfilternya agar mengabaikan data pada tahun itu. Hal ini dilakukan dengan fungsi filter() dengan argumen tahun < 2024. Namun, filter seperti itu mengharuskan nilai-nilai dalam variabel tahun jenisnya adalah integer (atau numerik). Untuk itu, kita modifikasi variabel tahun agar menjadi integer dengan fungsi mutate dan as.integer(). Kita lihat hasilnya dengan print().

realisasi_penanaman_modal <- realisasi_penanaman_modal |> 
  pivot_longer(
    cols = starts_with("20"),
    names_to = "tahun",
    values_to = "nilai_investasi"
  ) |> 
  mutate(tahun = as.integer(tahun)) |> 
  filter(tahun < 2024)

print(realisasi_penanaman_modal)

# A tibble: 2,478 × 4
   benua  negara         tahun nilai_investasi
   <chr>  <chr>          <int>           <dbl>
 1 Afrika Afrika Lainnya  2010              NA
 2 Afrika Afrika Lainnya  2011              NA
 3 Afrika Afrika Lainnya  2012              NA
 4 Afrika Afrika Lainnya  2013              NA
 5 Afrika Afrika Lainnya  2014              NA
 6 Afrika Afrika Lainnya  2015              NA
 7 Afrika Afrika Lainnya  2016              NA
 8 Afrika Afrika Lainnya  2017              NA
 9 Afrika Afrika Lainnya  2018               0
10 Afrika Afrika Lainnya  2019              NA
# ℹ 2,468 more rows
…
Untuk membuat diagram batang yang demikian, kita memerlukan data yang memiliki variabel benua dan tahun, serta nilai akumulasi dari realisasi penanaman modal untuk benua dan tahun yang bersangkutan.

Untuk membuat data seperti itu, kita menggunakan data realisasi_penanaman_modal. Setelah itu, kita kelompokkan baris-baris dalam data tersebut menurut benua dan tahun untuk dihitung jumlah (sum()) nilai-nilai variabel nilai_investasi-nya. Kita namai data ini sebagai investasi_benua_tahun.

investasi_benua_tahun <- realisasi_penanaman_modal |> 
  group_by(benua, tahun) |> 
  summarise(
    total_investasi = sum(nilai_investasi, na.rm = TRUE),
    .groups = "drop"
  )

print(investasi_benua_tahun)

# A tibble: 84 × 3
   benua  tahun total_investasi
   <chr>  <int>           <dbl>
 1 Afrika  2010         149993.
 2 Afrika  2011         202130.
 3 Afrika  2012        1195699.
 4 Afrika  2013         801737.
 5 Afrika  2014         663936.
 6 Afrika  2015         192825.
 7 Afrika  2016         744869.
 8 Afrika  2017        1288737.
 9 Afrika  2018         373937.
10 Afrika  2019         326860.
# ℹ 74 more rows
…
