Visualisasi Data Pendapatan Industri Musik – Jelajah Statistika dan Ilmu Data
…
Mempersiapkan dan Menjelajah Data

Kita siapkan datanya terlebih dahulu. Data tersebut dapat kita peroleh dari situs web RIAA. Data dari situs itu yang sudah aku rapikan dapat diakses di GitHub. Mari kita impor data tersebut dengan read_csv().

url_fail <- "https://raw.githubusercontent.com/jelajahstatid/jelajahstatid.github.io/refs/heads/main/pos/2025-01-pendapatan-musik/aset/pendapatan_as_riaa.csv"

pendapatan_as_riaa <- read_csv(
  file = url_fail,
  show_col_types = FALSE
)

print(pendapatan_as_riaa)

# A tibble: 508 × 5
   format grup  tahun      pendapatan pendapatan_infl
   <chr>  <chr> <date>          <dbl>           <dbl>
 1 CD     Disc  1983-01-01       17.2            52.6
 2 CD     Disc  1984-01-01      103.            303. 
 3 CD     Disc  1985-01-01      390.           1103  
 4 CD     Disc  1986-01-01      930.           2586. 
 5 CD     Disc  1987-01-01     1594.           4274. 
 6 CD     Disc  1988-01-01     2090.           5383. 
 7 CD     Disc  1989-01-01     2588.           6359. 
 8 CD     Disc  1990-01-01     3452.           8047. 
 9 CD     Disc  1991-01-01     4338.           9704. 
10 CD     Disc  1992-01-01     5326.          11568  
# ℹ 498 more rows
…
