Indonesia Negara Dua Musim – Jelajah Statistika dan Ilmu Data
…
# Data curah hujan tahunan pada tahun 2019 -- 2022
df_mswep_19_22 <- df_mswep_tahunan |> 
  filter(
    tahun %in% c(2019, 2020, 2021, 2022)
  )

print(df_mswep_19_22)

# A tibble: 50,048 × 4
       x     y tahun curah_hujan_tahunan
   <dbl> <dbl> <dbl>               <dbl>
 1  95.1 -10.9  2019               1056.
 2  95.1 -10.9  2020               1966.
 3  95.1 -10.9  2021               3029.
 4  95.1 -10.9  2022               2868.
 5  95.1 -10.6  2019               1071.
 6  95.1 -10.6  2020               2034.
 7  95.1 -10.6  2021               2997.
 8  95.1 -10.6  2022               3136.
 9  95.1 -10.4  2019               1029.
10  95.1 -10.4  2020               2097.
# ℹ 50,038 more rows
…
